%YAML 1.1
%TAG !u! tag:unity3d.com,2011:
--- !u!1045 &1
EditorBuildSettings:
  m_ObjectHideFlags: 0
  serializedVersion: 2
  m_Scenes:
  - enabled: 1
    path: Assets/Scenes/Lvl.1.unity
    guid: 99c9720ab356a0642a771bea13969a05
  - enabled: 1
    path: Assets/Scenes/lvl.2.unity
    guid: 86c4ec42233648a4880bb2d780a41b0e
  - enabled: 1
    path: Assets/Scenes/Lvl.3.unity
    guid: 17229aacb10cc3947a80ec67da2a8c7d
  - enabled: 1
    path: Assets/Scenes/Victoria.unity
    guid: 79406058953d1fd41ac7650b28d6432c
  m_configObjects: {}
